   0  $accept : program $end

   1  program : bloc

   2  bloc : Declare declaration_list Begin instruction_list End

   3  declaration_list : declaration
   4                   | declaration_list ';' declaration

   5  declaration : Var Identifier
   6              | Proc Identifier '(' formal_param_list ')' Is bloc

   7  formal_param_list : Identifier ',' formal_param_list
   8                    | Identifier
   9                    |

  10  instruction_list : instruction
  11                   | instruction_list ';' instruction

  12  instruction : Identifier Assign e
  13              | Skip
  14              | While b Do instruction Od
  15              | If b Then instruction Else instruction
  16              | Call Identifier '(' effective_param_list ')'

  17  effective_param_list : e ',' effective_param_list
  18                       | e
  19                       |

  20  e : e '+' t
  21    | t

  22  t : t '*' f
  23    | f

  24  f : '(' e ')'
  25    | Identifier
  26    | Integer

  27  b : b And bb
  28    | bb

  29  bb : e Geq e
  30     | e Leq e
  31     | e '<' e
  32     | e '>' e
  33     | e '=' e
  34     | '^' bb
  35     | '(' b ')'

state 0
	$accept : . program $end  (0)

	Declare  shift 1
	.  error

	program  goto 2
	bloc  goto 3


state 1
	bloc : Declare . declaration_list Begin instruction_list End  (2)

	Proc  shift 4
	Var  shift 5
	.  error

	declaration_list  goto 6
	declaration  goto 7


state 2
	$accept : program . $end  (0)

	$end  accept


state 3
	program : bloc .  (1)

	.  reduce 1


state 4
	declaration : Proc . Identifier '(' formal_param_list ')' Is bloc  (6)

	Identifier  shift 8
	.  error


state 5
	declaration : Var . Identifier  (5)

	Identifier  shift 9
	.  error


state 6
	bloc : Declare declaration_list . Begin instruction_list End  (2)
	declaration_list : declaration_list . ';' declaration  (4)

	Begin  shift 10
	';'  shift 11
	.  error


state 7
	declaration_list : declaration .  (3)

	.  reduce 3


state 8
	declaration : Proc Identifier . '(' formal_param_list ')' Is bloc  (6)

	'('  shift 12
	.  error


state 9
	declaration : Var Identifier .  (5)

	.  reduce 5


state 10
	bloc : Declare declaration_list Begin . instruction_list End  (2)

	While  shift 13
	Skip  shift 14
	If  shift 15
	Identifier  shift 16
	Call  shift 17
	.  error

	instruction_list  goto 18
	instruction  goto 19


state 11
	declaration_list : declaration_list ';' . declaration  (4)

	Proc  shift 4
	Var  shift 5
	.  error

	declaration  goto 20


state 12
	declaration : Proc Identifier '(' . formal_param_list ')' Is bloc  (6)
	formal_param_list : .  (9)

	Identifier  shift 21
	')'  reduce 9

	formal_param_list  goto 22


state 13
	instruction : While . b Do instruction Od  (14)

	Integer  shift 23
	Identifier  shift 24
	'('  shift 25
	'^'  shift 26
	.  error

	e  goto 27
	t  goto 28
	f  goto 29
	b  goto 30
	bb  goto 31


state 14
	instruction : Skip .  (13)

	.  reduce 13


state 15
	instruction : If . b Then instruction Else instruction  (15)

	Integer  shift 23
	Identifier  shift 24
	'('  shift 25
	'^'  shift 26
	.  error

	e  goto 27
	t  goto 28
	f  goto 29
	b  goto 32
	bb  goto 31


state 16
	instruction : Identifier . Assign e  (12)

	Assign  shift 33
	.  error


state 17
	instruction : Call . Identifier '(' effective_param_list ')'  (16)

	Identifier  shift 34
	.  error


state 18
	bloc : Declare declaration_list Begin instruction_list . End  (2)
	instruction_list : instruction_list . ';' instruction  (11)

	End  shift 35
	';'  shift 36
	.  error


state 19
	instruction_list : instruction .  (10)

	.  reduce 10


state 20
	declaration_list : declaration_list ';' declaration .  (4)

	.  reduce 4


state 21
	formal_param_list : Identifier . ',' formal_param_list  (7)
	formal_param_list : Identifier .  (8)

	','  shift 37
	')'  reduce 8


state 22
	declaration : Proc Identifier '(' formal_param_list . ')' Is bloc  (6)

	')'  shift 38
	.  error


state 23
	f : Integer .  (26)

	.  reduce 26


state 24
	f : Identifier .  (25)

	.  reduce 25


state 25
	f : '(' . e ')'  (24)
	bb : '(' . b ')'  (35)

	Integer  shift 23
	Identifier  shift 24
	'('  shift 25
	'^'  shift 26
	.  error

	e  goto 39
	t  goto 28
	f  goto 29
	b  goto 40
	bb  goto 31


state 26
	bb : '^' . bb  (34)

	Integer  shift 23
	Identifier  shift 24
	'('  shift 25
	'^'  shift 26
	.  error

	e  goto 27
	t  goto 28
	f  goto 29
	bb  goto 41


state 27
	e : e . '+' t  (20)
	bb : e . Geq e  (29)
	bb : e . Leq e  (30)
	bb : e . '<' e  (31)
	bb : e . '>' e  (32)
	bb : e . '=' e  (33)

	Leq  shift 42
	Geq  shift 43
	'+'  shift 44
	'<'  shift 45
	'>'  shift 46
	'='  shift 47
	.  error


state 28
	e : t .  (21)
	t : t . '*' f  (22)

	'*'  shift 48
	Then  reduce 21
	Else  reduce 21
	Do  reduce 21
	Od  reduce 21
	And  reduce 21
	End  reduce 21
	Leq  reduce 21
	Geq  reduce 21
	';'  reduce 21
	')'  reduce 21
	','  reduce 21
	'+'  reduce 21
	'<'  reduce 21
	'>'  reduce 21
	'='  reduce 21


state 29
	t : f .  (23)

	.  reduce 23


state 30
	instruction : While b . Do instruction Od  (14)
	b : b . And bb  (27)

	Do  shift 49
	And  shift 50
	.  error


state 31
	b : bb .  (28)

	.  reduce 28


state 32
	instruction : If b . Then instruction Else instruction  (15)
	b : b . And bb  (27)

	Then  shift 51
	And  shift 50
	.  error


state 33
	instruction : Identifier Assign . e  (12)

	Integer  shift 23
	Identifier  shift 24
	'('  shift 52
	.  error

	e  goto 53
	t  goto 28
	f  goto 29


state 34
	instruction : Call Identifier . '(' effective_param_list ')'  (16)

	'('  shift 54
	.  error


state 35
	bloc : Declare declaration_list Begin instruction_list End .  (2)

	.  reduce 2


state 36
	instruction_list : instruction_list ';' . instruction  (11)

	While  shift 13
	Skip  shift 14
	If  shift 15
	Identifier  shift 16
	Call  shift 17
	.  error

	instruction  goto 55


state 37
	formal_param_list : Identifier ',' . formal_param_list  (7)
	formal_param_list : .  (9)

	Identifier  shift 21
	')'  reduce 9

	formal_param_list  goto 56


state 38
	declaration : Proc Identifier '(' formal_param_list ')' . Is bloc  (6)

	Is  shift 57
	.  error


state 39
	e : e . '+' t  (20)
	f : '(' e . ')'  (24)
	bb : e . Geq e  (29)
	bb : e . Leq e  (30)
	bb : e . '<' e  (31)
	bb : e . '>' e  (32)
	bb : e . '=' e  (33)

	Leq  shift 42
	Geq  shift 43
	')'  shift 58
	'+'  shift 44
	'<'  shift 45
	'>'  shift 46
	'='  shift 47
	.  error


state 40
	b : b . And bb  (27)
	bb : '(' b . ')'  (35)

	And  shift 50
	')'  shift 59
	.  error


state 41
	bb : '^' bb .  (34)

	.  reduce 34


state 42
	bb : e Leq . e  (30)

	Integer  shift 23
	Identifier  shift 24
	'('  shift 52
	.  error

	e  goto 60
	t  goto 28
	f  goto 29


state 43
	bb : e Geq . e  (29)

	Integer  shift 23
	Identifier  shift 24
	'('  shift 52
	.  error

	e  goto 61
	t  goto 28
	f  goto 29


state 44
	e : e '+' . t  (20)

	Integer  shift 23
	Identifier  shift 24
	'('  shift 52
	.  error

	t  goto 62
	f  goto 29


state 45
	bb : e '<' . e  (31)

	Integer  shift 23
	Identifier  shift 24
	'('  shift 52
	.  error

	e  goto 63
	t  goto 28
	f  goto 29


state 46
	bb : e '>' . e  (32)

	Integer  shift 23
	Identifier  shift 24
	'('  shift 52
	.  error

	e  goto 64
	t  goto 28
	f  goto 29


state 47
	bb : e '=' . e  (33)

	Integer  shift 23
	Identifier  shift 24
	'('  shift 52
	.  error

	e  goto 65
	t  goto 28
	f  goto 29


state 48
	t : t '*' . f  (22)

	Integer  shift 23
	Identifier  shift 24
	'('  shift 52
	.  error

	f  goto 66


state 49
	instruction : While b Do . instruction Od  (14)

	While  shift 13
	Skip  shift 14
	If  shift 15
	Identifier  shift 16
	Call  shift 17
	.  error

	instruction  goto 67


state 50
	b : b And . bb  (27)

	Integer  shift 23
	Identifier  shift 24
	'('  shift 25
	'^'  shift 26
	.  error

	e  goto 27
	t  goto 28
	f  goto 29
	bb  goto 68


state 51
	instruction : If b Then . instruction Else instruction  (15)

	While  shift 13
	Skip  shift 14
	If  shift 15
	Identifier  shift 16
	Call  shift 17
	.  error

	instruction  goto 69


state 52
	f : '(' . e ')'  (24)

	Integer  shift 23
	Identifier  shift 24
	'('  shift 52
	.  error

	e  goto 70
	t  goto 28
	f  goto 29


state 53
	instruction : Identifier Assign e .  (12)
	e : e . '+' t  (20)

	'+'  shift 44
	Else  reduce 12
	Od  reduce 12
	End  reduce 12
	';'  reduce 12


state 54
	instruction : Call Identifier '(' . effective_param_list ')'  (16)
	effective_param_list : .  (19)

	Integer  shift 23
	Identifier  shift 24
	'('  shift 52
	')'  reduce 19

	effective_param_list  goto 71
	e  goto 72
	t  goto 28
	f  goto 29


state 55
	instruction_list : instruction_list ';' instruction .  (11)

	.  reduce 11


state 56
	formal_param_list : Identifier ',' formal_param_list .  (7)

	.  reduce 7


state 57
	declaration : Proc Identifier '(' formal_param_list ')' Is . bloc  (6)

	Declare  shift 1
	.  error

	bloc  goto 73


state 58
	f : '(' e ')' .  (24)

	.  reduce 24


state 59
	bb : '(' b ')' .  (35)

	.  reduce 35


state 60
	e : e . '+' t  (20)
	bb : e Leq e .  (30)

	'+'  shift 44
	Then  reduce 30
	Do  reduce 30
	And  reduce 30
	')'  reduce 30


state 61
	e : e . '+' t  (20)
	bb : e Geq e .  (29)

	'+'  shift 44
	Then  reduce 29
	Do  reduce 29
	And  reduce 29
	')'  reduce 29


state 62
	e : e '+' t .  (20)
	t : t . '*' f  (22)

	'*'  shift 48
	Then  reduce 20
	Else  reduce 20
	Do  reduce 20
	Od  reduce 20
	And  reduce 20
	End  reduce 20
	Leq  reduce 20
	Geq  reduce 20
	';'  reduce 20
	')'  reduce 20
	','  reduce 20
	'+'  reduce 20
	'<'  reduce 20
	'>'  reduce 20
	'='  reduce 20


state 63
	e : e . '+' t  (20)
	bb : e '<' e .  (31)

	'+'  shift 44
	Then  reduce 31
	Do  reduce 31
	And  reduce 31
	')'  reduce 31


state 64
	e : e . '+' t  (20)
	bb : e '>' e .  (32)

	'+'  shift 44
	Then  reduce 32
	Do  reduce 32
	And  reduce 32
	')'  reduce 32


state 65
	e : e . '+' t  (20)
	bb : e '=' e .  (33)

	'+'  shift 44
	Then  reduce 33
	Do  reduce 33
	And  reduce 33
	')'  reduce 33


state 66
	t : t '*' f .  (22)

	.  reduce 22


state 67
	instruction : While b Do instruction . Od  (14)

	Od  shift 74
	.  error


state 68
	b : b And bb .  (27)

	.  reduce 27


state 69
	instruction : If b Then instruction . Else instruction  (15)

	Else  shift 75
	.  error


state 70
	e : e . '+' t  (20)
	f : '(' e . ')'  (24)

	')'  shift 58
	'+'  shift 44
	.  error


state 71
	instruction : Call Identifier '(' effective_param_list . ')'  (16)

	')'  shift 76
	.  error


state 72
	effective_param_list : e . ',' effective_param_list  (17)
	effective_param_list : e .  (18)
	e : e . '+' t  (20)

	','  shift 77
	'+'  shift 44
	')'  reduce 18


state 73
	declaration : Proc Identifier '(' formal_param_list ')' Is bloc .  (6)

	.  reduce 6


state 74
	instruction : While b Do instruction Od .  (14)

	.  reduce 14


state 75
	instruction : If b Then instruction Else . instruction  (15)

	While  shift 13
	Skip  shift 14
	If  shift 15
	Identifier  shift 16
	Call  shift 17
	.  error

	instruction  goto 78


state 76
	instruction : Call Identifier '(' effective_param_list ')' .  (16)

	.  reduce 16


state 77
	effective_param_list : e ',' . effective_param_list  (17)
	effective_param_list : .  (19)

	Integer  shift 23
	Identifier  shift 24
	'('  shift 52
	')'  reduce 19

	effective_param_list  goto 79
	e  goto 72
	t  goto 28
	f  goto 29


state 78
	instruction : If b Then instruction Else instruction .  (15)

	.  reduce 15


state 79
	effective_param_list : e ',' effective_param_list .  (17)

	.  reduce 17


33 terminals, 14 nonterminals
36 grammar rules, 80 states
